---
title: "Examining the GDP of USA, India & Germany"
output: html_document
---

In this analysis we will examine the different components of GDP by country!

clean_GDP_Data

## # A tibble: 176,880 x 5
##    CountryID Country     IndicatorName     year  Expenditure
##        <dbl> <chr>       <chr>             <chr>       <dbl>
##  1         4 Afghanistan Total Consumption 1970         5.56
##  2         4 Afghanistan Total Consumption 1971         5.33
##  3         4 Afghanistan Total Consumption 1972         5.20
##  4         4 Afghanistan Total Consumption 1973         5.75
##  5         4 Afghanistan Total Consumption 1974         6.15
##  6         4 Afghanistan Total Consumption 1975         6.32
##  7         4 Afghanistan Total Consumption 1976         6.37
##  8         4 Afghanistan Total Consumption 1977         6.90
##  9         4 Afghanistan Total Consumption 1978         7.09
## 10         4 Afghanistan Total Consumption 1979         6.92
## # ... with 176,870 more rows
…
